[
    {
        "id": 7508411,
        "name": "RxJava",
        "full_name": "ReactiveX/RxJava",
        "owner": {
            "login": "ReactiveX",
            "id": 6407041,
            "avatar_url": "https://avatars1.githubusercontent.com/u/6407041?v=4",
            "gravatar_id": "",
            "url": "https://api.github.com/users/ReactiveX",
            "html_url": "https://github.com/ReactiveX",
            "followers_url": "https://api.github.com/users/ReactiveX/followers",
            "following_url": "https://api.github.com/users/ReactiveX/following{/other_user}",
            "gists_url": "https://api.github.com/users/ReactiveX/gists{/gist_id}",
            "starred_url": "https://api.github.com/users/ReactiveX/starred{/owner}{/repo}",
            "subscriptions_url": "https://api.github.com/users/ReactiveX/subscriptions",
            "organizations_url": "https://api.github.com/users/ReactiveX/orgs",
            "repos_url": "https://api.github.com/users/ReactiveX/repos",
            "events_url": "https://api.github.com/users/ReactiveX/events{/privacy}",
            "received_events_url": "https://api.github.com/users/ReactiveX/received_events",
            "type": "Organization",
            "site_admin": false
        },
        "private": false,
        "html_url": "https://github.com/ReactiveX/RxJava",
        "description": "RxJava – Reactive Extensions for the JVM – a library for composing asynchronous and event-based programs using observable sequences for the Java VM.",
        "fork": false,
        "url": "https://api.github.com/repos/ReactiveX/RxJava",
        "forks_url": "https://api.github.com/repos/ReactiveX/RxJava/forks",
        "keys_url": "https://api.github.com/repos/ReactiveX/RxJava/keys{/key_id}",
        "collaborators_url": "https://api.github.com/repos/ReactiveX/RxJava/collaborators{/collaborator}",
        "teams_url": "https://api.github.com/repos/ReactiveX/RxJava/teams",
        "hooks_url": "https://api.github.com/repos/ReactiveX/RxJava/hooks",
        "issue_events_url": "https://api.github.com/repos/ReactiveX/RxJava/issues/events{/number}",
        "events_url": "https://api.github.com/repos/ReactiveX/RxJava/events",
        "assignees_url": "https://api.github.com/repos/ReactiveX/RxJava/assignees{/user}",
        "branches_url": "https://api.github.com/repos/ReactiveX/RxJava/branches{/branch}",
        "tags_url": "https://api.github.com/repos/ReactiveX/RxJava/tags",
        "blobs_url": "https://api.github.com/repos/ReactiveX/RxJava/git/blobs{/sha}",
        "git_tags_url": "https://api.github.com/repos/ReactiveX/RxJava/git/tags{/sha}",
        "git_refs_url": "https://api.github.com/repos/ReactiveX/RxJava/git/refs{/sha}",
        "trees_url": "https://api.github.com/repos/ReactiveX/RxJava/git/trees{/sha}",
        "statuses_url": "https://api.github.com/repos/ReactiveX/RxJava/statuses/{sha}",
        "languages_url": "https://api.github.com/repos/ReactiveX/RxJava/languages",
        "stargazers_url": "https://api.github.com/repos/ReactiveX/RxJava/stargazers",
        "contributors_url": "https://api.github.com/repos/ReactiveX/RxJava/contributors",
        "subscribers_url": "https://api.github.com/repos/ReactiveX/RxJava/subscribers",
        "subscription_url": "https://api.github.com/repos/ReactiveX/RxJava/subscription",
        "commits_url": "https://api.github.com/repos/ReactiveX/RxJava/commits{/sha}",
        "git_commits_url": "https://api.github.com/repos/ReactiveX/RxJava/git/commits{/sha}",
        "comments_url": "https://api.github.com/repos/ReactiveX/RxJava/comments{/number}",
        "issue_comment_url": "https://api.github.com/repos/ReactiveX/RxJava/issues/comments{/number}",
        "contents_url": "https://api.github.com/repos/ReactiveX/RxJava/contents/{+path}",
        "compare_url": "https://api.github.com/repos/ReactiveX/RxJava/compare/{base}...{head}",
        "merges_url": "https://api.github.com/repos/ReactiveX/RxJava/merges",
        "archive_url": "https://api.github.com/repos/ReactiveX/RxJava/{archive_format}{/ref}",
        "downloads_url": "https://api.github.com/repos/ReactiveX/RxJava/downloads",
        "issues_url": "https://api.github.com/repos/ReactiveX/RxJava/issues{/number}",
        "pulls_url": "https://api.github.com/repos/ReactiveX/RxJava/pulls{/number}",
        "milestones_url": "https://api.github.com/repos/ReactiveX/RxJava/milestones{/number}",
        "notifications_url": "https://api.github.com/repos/ReactiveX/RxJava/notifications{?since,all,participating}",
        "labels_url": "https://api.github.com/repos/ReactiveX/RxJava/labels{/name}",
        "releases_url": "https://api.github.com/repos/ReactiveX/RxJava/releases{/id}",
        "deployments_url": "https://api.github.com/repos/ReactiveX/RxJava/deployments",
        "created_at": "2013-01-08T20:11:48Z",
        "updated_at": "2017-09-14T02:16:40Z",
        "pushed_at": "2017-09-12T11:45:58Z",
        "git_url": "git://github.com/ReactiveX/RxJava.git",
        "ssh_url": "git@github.com:ReactiveX/RxJava.git",
        "clone_url": "https://github.com/ReactiveX/RxJava.git",
        "svn_url": "https://github.com/ReactiveX/RxJava",
        "homepage": "",
        "size": 43165,
        "stargazers_count": 27250,
        "watchers_count": 27250,
        "language": "Java",
        "has_issues": true,
        "has_projects": true,
        "has_downloads": true,
        "has_wiki": true,
        "has_pages": true,
        "forks_count": 4801,
        "mirror_url": null,
        "open_issues_count": 37,
        "forks": 4801,
        "open_issues": 37,
        "watchers": 27250,
        "default_branch": "2.x",
        "score": 1
    },
    {
        "id": 507775,
        "name": "elasticsearch",
        "full_name": "elastic/elasticsearch",
        "owner": {
            "login": "elastic",
            "id": 6764390,
            "avatar_url": "https://avatars0.githubusercontent.com/u/6764390?v=4",
            "gravatar_id": "",
            "url": "https://api.github.com/users/elastic",
            "html_url": "https://github.com/elastic",
            "followers_url": "https://api.github.com/users/elastic/followers",
            "following_url": "https://api.github.com/users/elastic/following{/other_user}",
            "gists_url": "https://api.github.com/users/elastic/gists{/gist_id}",
            "starred_url": "https://api.github.com/users/elastic/starred{/owner}{/repo}",
            "subscriptions_url": "https://api.github.com/users/elastic/subscriptions",
            "organizations_url": "https://api.github.com/users/elastic/orgs",
            "repos_url": "https://api.github.com/users/elastic/repos",
            "events_url": "https://api.github.com/users/elastic/events{/privacy}",
            "received_events_url": "https://api.github.com/users/elastic/received_events",
            "type": "Organization",
            "site_admin": false
        },
        "private": false,
        "html_url": "https://github.com/elastic/elasticsearch",
        "description": "Open Source, Distributed, RESTful Search Engine",
        "fork": false,
        "url": "https://api.github.com/repos/elastic/elasticsearch",
        "forks_url": "https://api.github.com/repos/elastic/elasticsearch/forks",
        "keys_url": "https://api.github.com/repos/elastic/elasticsearch/keys{/key_id}",
        "collaborators_url": "https://api.github.com/repos/elastic/elasticsearch/collaborators{/collaborator}",
        "teams_url": "https://api.github.com/repos/elastic/elasticsearch/teams",
        "hooks_url": "https://api.github.com/repos/elastic/elasticsearch/hooks",
        "issue_events_url": "https://api.github.com/repos/elastic/elasticsearch/issues/events{/number}",
        "events_url": "https://api.github.com/repos/elastic/elasticsearch/events",
        "assignees_url": "https://api.github.com/repos/elastic/elasticsearch/assignees{/user}",
        "branches_url": "https://api.github.com/repos/elastic/elasticsearch/branches{/branch}",
        "tags_url": "https://api.github.com/repos/elastic/elasticsearch/tags",
        "blobs_url": "https://api.github.com/repos/elastic/elasticsearch/git/blobs{/sha}",
        "git_tags_url": "https://api.github.com/repos/elastic/elasticsearch/git/tags{/sha}",
        "git_refs_url": "https://api.github.com/repos/elastic/elasticsearch/git/refs{/sha}",
        "trees_url": "https://api.github.com/repos/elastic/elasticsearch/git/trees{/sha}",
        "statuses_url": "https://api.github.com/repos/elastic/elasticsearch/statuses/{sha}",
        "languages_url": "https://api.github.com/repos/elastic/elasticsearch/languages",
        "stargazers_url": "https://api.github.com/repos/elastic/elasticsearch/stargazers",
        "contributors_url": "https://api.github.com/repos/elastic/elasticsearch/contributors",
        "subscribers_url": "https://api.github.com/repos/elastic/elasticsearch/subscribers",
        "subscription_url": "https://api.github.com/repos/elastic/elasticsearch/subscription",
        "commits_url": "https://api.github.com/repos/elastic/elasticsearch/commits{/sha}",
        "git_commits_url": "https://api.github.com/repos/elastic/elasticsearch/git/commits{/sha}",
        "comments_url": "https://api.github.com/repos/elastic/elasticsearch/comments{/number}",
        "issue_comment_url": "https://api.github.com/repos/elastic/elasticsearch/issues/comments{/number}",
        "contents_url": "https://api.github.com/repos/elastic/elasticsearch/contents/{+path}",
        "compare_url": "https://api.github.com/repos/elastic/elasticsearch/compare/{base}...{head}",
        "merges_url": "https://api.github.com/repos/elastic/elasticsearch/merges",
        "archive_url": "https://api.github.com/repos/elastic/elasticsearch/{archive_format}{/ref}",
        "downloads_url": "https://api.github.com/repos/elastic/elasticsearch/downloads",
        "issues_url": "https://api.github.com/repos/elastic/elasticsearch/issues{/number}",
        "pulls_url": "https://api.github.com/repos/elastic/elasticsearch/pulls{/number}",
        "milestones_url": "https://api.github.com/repos/elastic/elasticsearch/milestones{/number}",
        "notifications_url": "https://api.github.com/repos/elastic/elasticsearch/notifications{?since,all,participating}",
        "labels_url": "https://api.github.com/repos/elastic/elasticsearch/labels{/name}",
        "releases_url": "https://api.github.com/repos/elastic/elasticsearch/releases{/id}",
        "deployments_url": "https://api.github.com/repos/elastic/elasticsearch/deployments",
        "created_at": "2010-02-08T13:20:56Z",
        "updated_at": "2017-09-14T02:52:00Z",
        "pushed_at": "2017-09-14T02:24:35Z",
        "git_url": "git://github.com/elastic/elasticsearch.git",
        "ssh_url": "git@github.com:elastic/elasticsearch.git",
        "clone_url": "https://github.com/elastic/elasticsearch.git",
        "svn_url": "https://github.com/elastic/elasticsearch",
        "homepage": "https://www.elastic.co/products/elasticsearch",
        "size": 369028,
        "stargazers_count": 25095,
        "watchers_count": 25095,
        "language": "Java",
        "has_issues": true,
        "has_projects": true,
        "has_downloads": true,
        "has_wiki": false,
        "has_pages": false,
        "forks_count": 8878,
        "mirror_url": null,
        "open_issues_count": 1315,
        "forks": 8878,
        "open_issues": 1315,
        "watchers": 25095,
        "default_branch": "master",
        "score": 1
    },
    {
        "id": 22790488,
        "name": "java-design-patterns",
        "full_name": "iluwatar/java-design-patterns",
        "owner": {
            "login": "iluwatar",
            "id": 582346,
            "avatar_url": "https://avatars1.githubusercontent.com/u/582346?v=4",
            "gravatar_id": "",
            "url": "https://api.github.com/users/iluwatar",
            "html_url": "https://github.com/iluwatar",
            "followers_url": "https://api.github.com/users/iluwatar/followers",
            "following_url": "https://api.github.com/users/iluwatar/following{/other_user}",
            "gists_url": "https://api.github.com/users/iluwatar/gists{/gist_id}",
            "starred_url": "https://api.github.com/users/iluwatar/starred{/owner}{/repo}",
            "subscriptions_url": "https://api.github.com/users/iluwatar/subscriptions",
            "organizations_url": "https://api.github.com/users/iluwatar/orgs",
            "repos_url": "https://api.github.com/users/iluwatar/repos",
            "events_url": "https://api.github.com/users/iluwatar/events{/privacy}",
            "received_events_url": "https://api.github.com/users/iluwatar/received_events",
            "type": "User",
            "site_admin": false
        },
        "private": false,
        "html_url": "https://github.com/iluwatar/java-design-patterns",
        "description": "Design patterns implemented in Java",
        "fork": false,
        "url": "https://api.github.com/repos/iluwatar/java-design-patterns",
        "forks_url": "https://api.github.com/repos/iluwatar/java-design-patterns/forks",
        "keys_url": "https://api.github.com/repos/iluwatar/java-design-patterns/keys{/key_id}",
        "collaborators_url": "https://api.github.com/repos/iluwatar/java-design-patterns/collaborators{/collaborator}",
        "teams_url": "https://api.github.com/repos/iluwatar/java-design-patterns/teams",
        "hooks_url": "https://api.github.com/repos/iluwatar/java-design-patterns/hooks",
        "issue_events_url": "https://api.github.com/repos/iluwatar/java-design-patterns/issues/events{/number}",
        "events_url": "https://api.github.com/repos/iluwatar/java-design-patterns/events",
        "assignees_url": "https://api.github.com/repos/iluwatar/java-design-patterns/assignees{/user}",
        "branches_url": "https://api.github.com/repos/iluwatar/java-design-patterns/branches{/branch}",
        "tags_url": "https://api.github.com/repos/iluwatar/java-design-patterns/tags",
        "blobs_url": "https://api.github.com/repos/iluwatar/java-design-patterns/git/blobs{/sha}",
        "git_tags_url": "https://api.github.com/repos/iluwatar/java-design-patterns/git/tags{/sha}",
        "git_refs_url": "https://api.github.com/repos/iluwatar/java-design-patterns/git/refs{/sha}",
        "trees_url": "https://api.github.com/repos/iluwatar/java-design-patterns/git/trees{/sha}",
        "statuses_url": "https://api.github.com/repos/iluwatar/java-design-patterns/statuses/{sha}",
        "languages_url": "https://api.github.com/repos/iluwatar/java-design-patterns/languages",
        "stargazers_url": "https://api.github.com/repos/iluwatar/java-design-patterns/stargazers",
        "contributors_url": "https://api.github.com/repos/iluwatar/java-design-patterns/contributors",
        "subscribers_url": "https://api.github.com/repos/iluwatar/java-design-patterns/subscribers",
        "subscription_url": "https://api.github.com/repos/iluwatar/java-design-patterns/subscription",
        "commits_url": "https://api.github.com/repos/iluwatar/java-design-patterns/commits{/sha}",
        "git_commits_url": "https://api.github.com/repos/iluwatar/java-design-patterns/git/commits{/sha}",
        "comments_url": "https://api.github.com/repos/iluwatar/java-design-patterns/comments{/number}",
        "issue_comment_url": "https://api.github.com/repos/iluwatar/java-design-patterns/issues/comments{/number}",
        "contents_url": "https://api.github.com/repos/iluwatar/java-design-patterns/contents/{+path}",
        "compare_url": "https://api.github.com/repos/iluwatar/java-design-patterns/compare/{base}...{head}",
        "merges_url": "https://api.github.com/repos/iluwatar/java-design-patterns/merges",
        "archive_url": "https://api.github.com/repos/iluwatar/java-design-patterns/{archive_format}{/ref}",
        "downloads_url": "https://api.github.com/repos/iluwatar/java-design-patterns/downloads",
        "issues_url": "https://api.github.com/repos/iluwatar/java-design-patterns/issues{/number}",
        "pulls_url": "https://api.github.com/repos/iluwatar/java-design-patterns/pulls{/number}",
        "milestones_url": "https://api.github.com/repos/iluwatar/java-design-patterns/milestones{/number}",
        "notifications_url": "https://api.github.com/repos/iluwatar/java-design-patterns/notifications{?since,all,participating}",
        "labels_url": "https://api.github.com/repos/iluwatar/java-design-patterns/labels{/name}",
        "releases_url": "https://api.github.com/repos/iluwatar/java-design-patterns/releases{/id}",
        "deployments_url": "https://api.github.com/repos/iluwatar/java-design-patterns/deployments",
        "created_at": "2014-08-09T16:45:18Z",
        "updated_at": "2017-09-14T02:34:49Z",
        "pushed_at": "2017-09-14T02:25:46Z",
        "git_url": "git://github.com/iluwatar/java-design-patterns.git",
        "ssh_url": "git@github.com:iluwatar/java-design-patterns.git",
        "clone_url": "https://github.com/iluwatar/java-design-patterns.git",
        "svn_url": "https://github.com/iluwatar/java-design-patterns",
        "homepage": "http://java-design-patterns.com",
        "size": 16133,
        "stargazers_count": 24256,
        "watchers_count": 24256,
        "language": "Java",
        "has_issues": true,
        "has_projects": true,
        "has_downloads": true,
        "has_wiki": true,
        "has_pages": true,
        "forks_count": 7764,
        "mirror_url": null,
        "open_issues_count": 174,
        "forks": 7764,
        "open_issues": 174,
        "watchers": 24256,
        "default_branch": "master",
        "score": 1
    },
    {
        "id": 892275,
        "name": "retrofit",
        "full_name": "square/retrofit",
        "owner": {
            "login": "square",
            "id": 82592,
            "avatar_url": "https://avatars0.githubusercontent.com/u/82592?v=4",
            "gravatar_id": "",
            "url": "https://api.github.com/users/square",
            "html_url": "https://github.com/square",
            "followers_url": "https://api.github.com/users/square/followers",
            "following_url": "https://api.github.com/users/square/following{/other_user}",
            "gists_url": "https://api.github.com/users/square/gists{/gist_id}",
            "starred_url": "https://api.github.com/users/square/starred{/owner}{/repo}",
            "subscriptions_url": "https://api.github.com/users/square/subscriptions",
            "organizations_url": "https://api.github.com/users/square/orgs",
            "repos_url": "https://api.github.com/users/square/repos",
            "events_url": "https://api.github.com/users/square/events{/privacy}",
            "received_events_url": "https://api.github.com/users/square/received_events",
            "type": "Organization",
            "site_admin": false
        },
        "private": false,
        "html_url": "https://github.com/square/retrofit",
        "description": "Type-safe HTTP client for Android and Java by Square, Inc.",
        "fork": false,
        "url": "https://api.github.com/repos/square/retrofit",
        "forks_url": "https://api.github.com/repos/square/retrofit/forks",
        "keys_url": "https://api.github.com/repos/square/retrofit/keys{/key_id}",
        "collaborators_url": "https://api.github.com/repos/square/retrofit/collaborators{/collaborator}",
        "teams_url": "https://api.github.com/repos/square/retrofit/teams",
        "hooks_url": "https://api.github.com/repos/square/retrofit/hooks",
        "issue_events_url": "https://api.github.com/repos/square/retrofit/issues/events{/number}",
        "events_url": "https://api.github.com/repos/square/retrofit/events",
        "assignees_url": "https://api.github.com/repos/square/retrofit/assignees{/user}",
        "branches_url": "https://api.github.com/repos/square/retrofit/branches{/branch}",
        "tags_url": "https://api.github.com/repos/square/retrofit/tags",
        "blobs_url": "https://api.github.com/repos/square/retrofit/git/blobs{/sha}",
        "git_tags_url": "https://api.github.com/repos/square/retrofit/git/tags{/sha}",
        "git_refs_url": "https://api.github.com/repos/square/retrofit/git/refs{/sha}",
        "trees_url": "https://api.github.com/repos/square/retrofit/git/trees{/sha}",
        "statuses_url": "https://api.github.com/repos/square/retrofit/statuses/{sha}",
        "languages_url": "https://api.github.com/repos/square/retrofit/languages",
        "stargazers_url": "https://api.github.com/repos/square/retrofit/stargazers",
        "contributors_url": "https://api.github.com/repos/square/retrofit/contributors",
        "subscribers_url": "https://api.github.com/repos/square/retrofit/subscribers",
        "subscription_url": "https://api.github.com/repos/square/retrofit/subscription",
        "commits_url": "https://api.github.com/repos/square/retrofit/commits{/sha}",
        "git_commits_url": "https://api.github.com/repos/square/retrofit/git/commits{/sha}",
        "comments_url": "https://api.github.com/repos/square/retrofit/comments{/number}",
        "issue_comment_url": "https://api.github.com/repos/square/retrofit/issues/comments{/number}",
        "contents_url": "https://api.github.com/repos/square/retrofit/contents/{+path}",
        "compare_url": "https://api.github.com/repos/square/retrofit/compare/{base}...{head}",
        "merges_url": "https://api.github.com/repos/square/retrofit/merges",
        "archive_url": "https://api.github.com/repos/square/retrofit/{archive_format}{/ref}",
        "downloads_url": "https://api.github.com/repos/square/retrofit/downloads",
        "issues_url": "https://api.github.com/repos/square/retrofit/issues{/number}",
        "pulls_url": "https://api.github.com/repos/square/retrofit/pulls{/number}",
        "milestones_url": "https://api.github.com/repos/square/retrofit/milestones{/number}",
        "notifications_url": "https://api.github.com/repos/square/retrofit/notifications{?since,all,participating}",
        "labels_url": "https://api.github.com/repos/square/retrofit/labels{/name}",
        "releases_url": "https://api.github.com/repos/square/retrofit/releases{/id}",
        "deployments_url": "https://api.github.com/repos/square/retrofit/deployments",
        "created_at": "2010-09-06T21:39:43Z",
        "updated_at": "2017-09-14T02:00:28Z",
        "pushed_at": "2017-09-10T21:30:10Z",
        "git_url": "git://github.com/square/retrofit.git",
        "ssh_url": "git@github.com:square/retrofit.git",
        "clone_url": "https://github.com/square/retrofit.git",
        "svn_url": "https://github.com/square/retrofit",
        "homepage": "http://square.github.io/retrofit/",
        "size": 4522,
        "stargazers_count": 23814,
        "watchers_count": 23814,
        "language": "Java",
        "has_issues": true,
        "has_projects": false,
        "has_downloads": true,
        "has_wiki": true,
        "has_pages": true,
        "forks_count": 4807,
        "mirror_url": null,
        "open_issues_count": 70,
        "forks": 4807,
        "open_issues": 70,
        "watchers": 23814,
        "default_branch": "master",
        "score": 1
    },
    {
        "id": 5152285,
        "name": "okhttp",
        "full_name": "square/okhttp",
        "owner": {
            "login": "square",
            "id": 82592,
            "avatar_url": "https://avatars0.githubusercontent.com/u/82592?v=4",
            "gravatar_id": "",
            "url": "https://api.github.com/users/square",
            "html_url": "https://github.com/square",
            "followers_url": "https://api.github.com/users/square/followers",
            "following_url": "https://api.github.com/users/square/following{/other_user}",
            "gists_url": "https://api.github.com/users/square/gists{/gist_id}",
            "starred_url": "https://api.github.com/users/square/starred{/owner}{/repo}",
            "subscriptions_url": "https://api.github.com/users/square/subscriptions",
            "organizations_url": "https://api.github.com/users/square/orgs",
            "repos_url": "https://api.github.com/users/square/repos",
            "events_url": "https://api.github.com/users/square/events{/privacy}",
            "received_events_url": "https://api.github.com/users/square/received_events",
            "type": "Organization",
            "site_admin": false
        },
        "private": false,
        "html_url": "https://github.com/square/okhttp",
        "description": "An HTTP+HTTP/2 client for Android and Java applications.",
        "fork": false,
        "url": "https://api.github.com/repos/square/okhttp",
        "forks_url": "https://api.github.com/repos/square/okhttp/forks",
        "keys_url": "https://api.github.com/repos/square/okhttp/keys{/key_id}",
        "collaborators_url": "https://api.github.com/repos/square/okhttp/collaborators{/collaborator}",
        "teams_url": "https://api.github.com/repos/square/okhttp/teams",
        "hooks_url": "https://api.github.com/repos/square/okhttp/hooks",
        "issue_events_url": "https://api.github.com/repos/square/okhttp/issues/events{/number}",
        "events_url": "https://api.github.com/repos/square/okhttp/events",
        "assignees_url": "https://api.github.com/repos/square/okhttp/assignees{/user}",
        "branches_url": "https://api.github.com/repos/square/okhttp/branches{/branch}",
        "tags_url": "https://api.github.com/repos/square/okhttp/tags",
        "blobs_url": "https://api.github.com/repos/square/okhttp/git/blobs{/sha}",
        "git_tags_url": "https://api.github.com/repos/square/okhttp/git/tags{/sha}",
        "git_refs_url": "https://api.github.com/repos/square/okhttp/git/refs{/sha}",
        "trees_url": "https://api.github.com/repos/square/okhttp/git/trees{/sha}",
        "statuses_url": "https://api.github.com/repos/square/okhttp/statuses/{sha}",
        "languages_url": "https://api.github.com/repos/square/okhttp/languages",
        "stargazers_url": "https://api.github.com/repos/square/okhttp/stargazers",
        "contributors_url": "https://api.github.com/repos/square/okhttp/contributors",
        "subscribers_url": "https://api.github.com/repos/square/okhttp/subscribers",
        "subscription_url": "https://api.github.com/repos/square/okhttp/subscription",
        "commits_url": "https://api.github.com/repos/square/okhttp/commits{/sha}",
        "git_commits_url": "https://api.github.com/repos/square/okhttp/git/commits{/sha}",
        "comments_url": "https://api.github.com/repos/square/okhttp/comments{/number}",
        "issue_comment_url": "https://api.github.com/repos/square/okhttp/issues/comments{/number}",
        "contents_url": "https://api.github.com/repos/square/okhttp/contents/{+path}",
        "compare_url": "https://api.github.com/repos/square/okhttp/compare/{base}...{head}",
        "merges_url": "https://api.github.com/repos/square/okhttp/merges",
        "archive_url": "https://api.github.com/repos/square/okhttp/{archive_format}{/ref}",
        "downloads_url": "https://api.github.com/repos/square/okhttp/downloads",
        "issues_url": "https://api.github.com/repos/square/okhttp/issues{/number}",
        "pulls_url": "https://api.github.com/repos/square/okhttp/pulls{/number}",
        "milestones_url": "https://api.github.com/repos/square/okhttp/milestones{/number}",
        "notifications_url": "https://api.github.com/repos/square/okhttp/notifications{?since,all,participating}",
        "labels_url": "https://api.github.com/repos/square/okhttp/labels{/name}",
        "releases_url": "https://api.github.com/repos/square/okhttp/releases{/id}",
        "deployments_url": "https://api.github.com/repos/square/okhttp/deployments",
        "created_at": "2012-07-23T13:42:55Z",
        "updated_at": "2017-09-14T01:33:11Z",
        "pushed_at": "2017-09-12T13:10:21Z",
        "git_url": "git://github.com/square/okhttp.git",
        "ssh_url": "git@github.com:square/okhttp.git",
        "clone_url": "https://github.com/square/okhttp.git",
        "svn_url": "https://github.com/square/okhttp",
        "homepage": "http://square.github.io/okhttp/",
        "size": 16379,
        "stargazers_count": 22361,
        "watchers_count": 22361,
        "language": "Java",
        "has_issues": true,
        "has_projects": false,
        "has_downloads": true,
        "has_wiki": true,
        "has_pages": true,
        "forks_count": 5400,
        "mirror_url": null,
        "open_issues_count": 112,
        "forks": 5400,
        "open_issues": 112,
        "watchers": 22361,
        "default_branch": "master",
        "score": 1
    },
    {
        "id": 20300177,
        "name": "guava",
        "full_name": "google/guava",
        "owner": {
            "login": "google",
            "id": 1342004,
            "avatar_url": "https://avatars1.githubusercontent.com/u/1342004?v=4",
            "gravatar_id": "",
            "url": "https://api.github.com/users/google",
            "html_url": "https://github.com/google",
            "followers_url": "https://api.github.com/users/google/followers",
            "following_url": "https://api.github.com/users/google/following{/other_user}",
            "gists_url": "https://api.github.com/users/google/gists{/gist_id}",
            "starred_url": "https://api.github.com/users/google/starred{/owner}{/repo}",
            "subscriptions_url": "https://api.github.com/users/google/subscriptions",
            "organizations_url": "https://api.github.com/users/google/orgs",
            "repos_url": "https://api.github.com/users/google/repos",
            "events_url": "https://api.github.com/users/google/events{/privacy}",
            "received_events_url": "https://api.github.com/users/google/received_events",
            "type": "Organization",
            "site_admin": false
        },
        "private": false,
        "html_url": "https://github.com/google/guava",
        "description": "Google Core Libraries for Java",
        "fork": false,
        "url": "https://api.github.com/repos/google/guava",
        "forks_url": "https://api.github.com/repos/google/guava/forks",
        "keys_url": "https://api.github.com/repos/google/guava/keys{/key_id}",
        "collaborators_url": "https://api.github.com/repos/google/guava/collaborators{/collaborator}",
        "teams_url": "https://api.github.com/repos/google/guava/teams",
        "hooks_url": "https://api.github.com/repos/google/guava/hooks",
        "issue_events_url": "https://api.github.com/repos/google/guava/issues/events{/number}",
        "events_url": "https://api.github.com/repos/google/guava/events",
        "assignees_url": "https://api.github.com/repos/google/guava/assignees{/user}",
        "branches_url": "https://api.github.com/repos/google/guava/branches{/branch}",
        "tags_url": "https://api.github.com/repos/google/guava/tags",
        "blobs_url": "https://api.github.com/repos/google/guava/git/blobs{/sha}",
        "git_tags_url": "https://api.github.com/repos/google/guava/git/tags{/sha}",
        "git_refs_url": "https://api.github.com/repos/google/guava/git/refs{/sha}",
        "trees_url": "https://api.github.com/repos/google/guava/git/trees{/sha}",
        "statuses_url": "https://api.github.com/repos/google/guava/statuses/{sha}",
        "languages_url": "https://api.github.com/repos/google/guava/languages",
        "stargazers_url": "https://api.github.com/repos/google/guava/stargazers",
        "contributors_url": "https://api.github.com/repos/google/guava/contributors",
        "subscribers_url": "https://api.github.com/repos/google/guava/subscribers",
        "subscription_url": "https://api.github.com/repos/google/guava/subscription",
        "commits_url": "https://api.github.com/repos/google/guava/commits{/sha}",
        "git_commits_url": "https://api.github.com/repos/google/guava/git/commits{/sha}",
        "comments_url": "https://api.github.com/repos/google/guava/comments{/number}",
        "issue_comment_url": "https://api.github.com/repos/google/guava/issues/comments{/number}",
        "contents_url": "https://api.github.com/repos/google/guava/contents/{+path}",
        "compare_url": "https://api.github.com/repos/google/guava/compare/{base}...{head}",
        "merges_url": "https://api.github.com/repos/google/guava/merges",
        "archive_url": "https://api.github.com/repos/google/guava/{archive_format}{/ref}",
        "downloads_url": "https://api.github.com/repos/google/guava/downloads",
        "issues_url": "https://api.github.com/repos/google/guava/issues{/number}",
        "pulls_url": "https://api.github.com/repos/google/guava/pulls{/number}",
        "milestones_url": "https://api.github.com/repos/google/guava/milestones{/number}",
        "notifications_url": "https://api.github.com/repos/google/guava/notifications{?since,all,participating}",
        "labels_url": "https://api.github.com/repos/google/guava/labels{/name}",
        "releases_url": "https://api.github.com/repos/google/guava/releases{/id}",
        "deployments_url": "https://api.github.com/repos/google/guava/deployments",
        "created_at": "2014-05-29T16:23:17Z",
        "updated_at": "2017-09-14T02:23:56Z",
        "pushed_at": "2017-09-13T23:02:06Z",
        "git_url": "git://github.com/google/guava.git",
        "ssh_url": "git@github.com:google/guava.git",
        "clone_url": "https://github.com/google/guava.git",
        "svn_url": "https://github.com/google/guava",
        "homepage": "",
        "size": 167154,
        "stargazers_count": 18895,
        "watchers_count": 18895,
        "language": "Java",
        "has_issues": true,
        "has_projects": true,
        "has_downloads": true,
        "has_wiki": true,
        "has_pages": true,
        "forks_count": 4440,
        "mirror_url": null,
        "open_issues_count": 760,
        "forks": 4440,
        "open_issues": 760,
        "watchers": 18895,
        "default_branch": "master",
        "score": 1
    },
    {
        "id": 8575137,
        "name": "butterknife",
        "full_name": "JakeWharton/butterknife",
        "owner": {
            "login": "JakeWharton",
            "id": 66577,
            "avatar_url": "https://avatars0.githubusercontent.com/u/66577?v=4",
            "gravatar_id": "",
            "url": "https://api.github.com/users/JakeWharton",
            "html_url": "https://github.com/JakeWharton",
            "followers_url": "https://api.github.com/users/JakeWharton/followers",
            "following_url": "https://api.github.com/users/JakeWharton/following{/other_user}",
            "gists_url": "https://api.github.com/users/JakeWharton/gists{/gist_id}",
            "starred_url": "https://api.github.com/users/JakeWharton/starred{/owner}{/repo}",
            "subscriptions_url": "https://api.github.com/users/JakeWharton/subscriptions",
            "organizations_url": "https://api.github.com/users/JakeWharton/orgs",
            "repos_url": "https://api.github.com/users/JakeWharton/repos",
            "events_url": "https://api.github.com/users/JakeWharton/events{/privacy}",
            "received_events_url": "https://api.github.com/users/JakeWharton/received_events",
            "type": "User",
            "site_admin": false
        },
        "private": false,
        "html_url": "https://github.com/JakeWharton/butterknife",
        "description": "Bind Android views and callbacks to fields and methods.",
        "fork": false,
        "url": "https://api.github.com/repos/JakeWharton/butterknife",
        "forks_url": "https://api.github.com/repos/JakeWharton/butterknife/forks",
        "keys_url": "https://api.github.com/repos/JakeWharton/butterknife/keys{/key_id}",
        "collaborators_url": "https://api.github.com/repos/JakeWharton/butterknife/collaborators{/collaborator}",
        "teams_url": "https://api.github.com/repos/JakeWharton/butterknife/teams",
        "hooks_url": "https://api.github.com/repos/JakeWharton/butterknife/hooks",
        "issue_events_url": "https://api.github.com/repos/JakeWharton/butterknife/issues/events{/number}",
        "events_url": "https://api.github.com/repos/JakeWharton/butterknife/events",
        "assignees_url": "https://api.github.com/repos/JakeWharton/butterknife/assignees{/user}",
        "branches_url": "https://api.github.com/repos/JakeWharton/butterknife/branches{/branch}",
        "tags_url": "https://api.github.com/repos/JakeWharton/butterknife/tags",
        "blobs_url": "https://api.github.com/repos/JakeWharton/butterknife/git/blobs{/sha}",
        "git_tags_url": "https://api.github.com/repos/JakeWharton/butterknife/git/tags{/sha}",
        "git_refs_url": "https://api.github.com/repos/JakeWharton/butterknife/git/refs{/sha}",
        "trees_url": "https://api.github.com/repos/JakeWharton/butterknife/git/trees{/sha}",
        "statuses_url": "https://api.github.com/repos/JakeWharton/butterknife/statuses/{sha}",
        "languages_url": "https://api.github.com/repos/JakeWharton/butterknife/languages",
        "stargazers_url": "https://api.github.com/repos/JakeWharton/butterknife/stargazers",
        "contributors_url": "https://api.github.com/repos/JakeWharton/butterknife/contributors",
        "subscribers_url": "https://api.github.com/repos/JakeWharton/butterknife/subscribers",
        "subscription_url": "https://api.github.com/repos/JakeWharton/butterknife/subscription",
        "commits_url": "https://api.github.com/repos/JakeWharton/butterknife/commits{/sha}",
        "git_commits_url": "https://api.github.com/repos/JakeWharton/butterknife/git/commits{/sha}",
        "comments_url": "https://api.github.com/repos/JakeWharton/butterknife/comments{/number}",
        "issue_comment_url": "https://api.github.com/repos/JakeWharton/butterknife/issues/comments{/number}",
        "contents_url": "https://api.github.com/repos/JakeWharton/butterknife/contents/{+path}",
        "compare_url": "https://api.github.com/repos/JakeWharton/butterknife/compare/{base}...{head}",
        "merges_url": "https://api.github.com/repos/JakeWharton/butterknife/merges",
        "archive_url": "https://api.github.com/repos/JakeWharton/butterknife/{archive_format}{/ref}",
        "downloads_url": "https://api.github.com/repos/JakeWharton/butterknife/downloads",
        "issues_url": "https://api.github.com/repos/JakeWharton/butterknife/issues{/number}",
        "pulls_url": "https://api.github.com/repos/JakeWharton/butterknife/pulls{/number}",
        "milestones_url": "https://api.github.com/repos/JakeWharton/butterknife/milestones{/number}",
        "notifications_url": "https://api.github.com/repos/JakeWharton/butterknife/notifications{?since,all,participating}",
        "labels_url": "https://api.github.com/repos/JakeWharton/butterknife/labels{/name}",
        "releases_url": "https://api.github.com/repos/JakeWharton/butterknife/releases{/id}",
        "deployments_url": "https://api.github.com/repos/JakeWharton/butterknife/deployments",
        "created_at": "2013-03-05T08:18:59Z",
        "updated_at": "2017-09-14T02:32:13Z",
        "pushed_at": "2017-09-12T22:37:27Z",
        "git_url": "git://github.com/JakeWharton/butterknife.git",
        "ssh_url": "git@github.com:JakeWharton/butterknife.git",
        "clone_url": "https://github.com/JakeWharton/butterknife.git",
        "svn_url": "https://github.com/JakeWharton/butterknife",
        "homepage": "http://jakewharton.github.io/butterknife/",
        "size": 3521,
        "stargazers_count": 18146,
        "watchers_count": 18146,
        "language": "Java",
        "has_issues": true,
        "has_projects": true,
        "has_downloads": true,
        "has_wiki": false,
        "has_pages": true,
        "forks_count": 3710,
        "mirror_url": null,
        "open_issues_count": 55,
        "forks": 3710,
        "open_issues": 55,
        "watchers": 18146,
        "default_branch": "master",
        "score": 1
    }
]
